LA09_P    W23   D14
LA09_N    W24   D15
LA08_P    AA25  G12
LA08_N    AB25  G13
LA07_P    V21   H13
LA07_N    W21   H14
LA06_P    W25   C10
LA06_N    W26   C11
LA05_P    U26   D11
LA05_N    V26   D12
LA04_P    V23   H10
LA04_N    V24   H11
LA03_P    U24   G9
LA03_N    U25   G10
LA33_P    R18   G36
LA33_N    P18   G37
LA32_P    U17   H37
LA32_N    T17   H38
LA31_P    N18   G33
LA31_N    M19   G34
LA30_P    R16   H34
LA30_N    R17   H35
LA02_P    U22   H7
LA02_N    V22   H8
LA29_P    P16   G30
LA29_N    N17   G31
LA28_P    T18   H31
LA28_N    T19   H32
LA27_P    U19   C26
LA27_N    U20   C27
LA26_P    T22   D26
LA26_N    T23   D27
LA25_P    T20   G27
LA25_N    R20   G28
LA24_P    T24   H28
LA24_N    T25   H29
LA23_P    AE22  D23
LA23_N    AF22  D24
LA22_P    AD25  G24
LA22_N    AE25  G25
LA21_P    AE23  H25
LA21_N    AF23  H26
LA20_P    AD26  G21
LA20_N    AE26  G22
LA01_CC_P AA23  D8
LA01_CC_N AB24  D9
LA19_P    AF24  H22
LA19_N    AF25  H23
LA18_CC_P AC23  C22
LA18_CC_N AC24  C23
LA17_CC_P Y22   D20
LA17_CC_N AA22  D21
LA16_P    AD21  G18
LA16_N    AE21  G19
LA15_P    AB21  H19
LA15_N    AC21  H20
LA14_P    AB22  C18
LA14_N    AC22  C19
LA13_P    AD23  D17
LA13_N    AD24  D18
LA12_P    W20   G15
LA12_N    Y21   G16
LA11_P    Y25   H16
LA11_N    Y26   H17
LA10_P    AB26  C14
LA10_N    AC26  C15
LA00_CC_P Y23   G6
LA00_CC_N AA24  G7
