LA09_P    G15   D14
LA09_N    F15   D15
LA08_P    H16   G12
LA08_N    G16   G13
LA07_P    D15   H13
LA07_N    D16   H14
LA06_P    C17   C10
LA06_N    C18   C11
LA05_P    C19   D11
LA05_N    B19   D12
LA04_P    B17   H10
LA04_N    A17   H11
LA03_P    A18   G9
LA03_N    A19   G10
LA33_P    M21   G36
LA33_N    M22   G37
LA32_P    P19   H37
LA32_N    P20   H38
LA31_P    M24   G33
LA31_N    L24   G34
LA30_P    N19   H34
LA30_N    M20   H35
LA02_P    C16   H7
LA02_N    B16   H8
LA29_P    R25   G30
LA29_N    P25   G31
LA28_P    N26   H31
LA28_N    M26   H32
LA27_P    P24   C26
LA27_N    N24   C27
LA26_P    M25   D26
LA26_N    L25   D27
LA25_P    R26   G27
LA25_N    P26   G28
LA24_P    K25   H28
LA24_N    K26   H29
LA23_P    L17   D23
LA23_N    K18   D24
LA22_P    M17   G24
LA22_N    L18   G25
LA21_P    K16   H25
LA21_N    K17   H26
LA20_P    L19   G21
LA20_N    L20   G22
LA01_CC_P G17   D8
LA01_CC_N F18   D9
LA19_P    J18   H22
LA19_N    J19   H23
LA18_CC_P H17   C22
LA18_CC_N H18   C23
LA17_CC_P E18   D20
LA17_CC_N D18   D21
LA16_P    K20   G18
LA16_N    J20   G19
LA15_P    H19   H19
LA15_N    G20   H20
LA14_P    F19   C18
LA14_N    E20   C19
LA13_P    G19   D17
LA13_N    F20   D18
LA12_P    D19   G15
LA12_N    D20   G16
LA11_P    E15   H16
LA11_N    E16   H17
LA10_P    J15   C14
LA10_N    J16   C15
LA00_CC_P F17   G6
LA00_CC_N E17   G7
