{   "iopinstype":["HP","GTX"]
	,"bankiostandard":{
		"13":{"singleended":["LVCMOS18"],"diff":["LVDS"]}
		,"14":{"singleended":["LVCMOS18"],"diff":["LVDS"]}
		,"15":{"singleended":["LVCMOS18"],"diff":["LVDS"]}
		,"16":{"singleended":["LVCMOS18"],"diff":["LVDS"]}
		,"17":{"singleended":["LVCMOS18"],"diff":["LVDS"]}
		,"18":{"singleended":["LVCMOS18"],"diff":["LVDS"]}
		,"19":{"singleended":["LVCMOS18"],"diff":["LVDS"]}
		,"33":{"singleended":["LVCMOS18"],"diff":["LVDS"]}
		,"34":{"singleended":["LVCMOS18"],"diff":["LVDS"]}
		,"35":{"singleended":["LVCMOS18"],"diff":["LVDS"]}
		,"36":{"singleended":["LVCMOS18"],"diff":["LVDS"]}
		,"37":{"singleended":["SSTL15","LVCMOS15"],"diff":["DIFF_SSTL15"]}
		,"38":{"singleended":["SSTL15","LVCMOS15"],"diff":["DIFF_SSTL15"]}
		,"39":{"singleended":["SSTL15","LVCMOS15"],"diff":["DIFF_SSTL15"]}
		,"113":{"singleended":[],"diff":[]}
		,"114":{"singleended":[],"diff":[]}
		,"115":{"singleended":[],"diff":[]}
		,"116":{"singleended":[],"diff":[]}
		,"117":{"singleended":[],"diff":[]}
		,"118":{"singleended":[],"diff":[]}
		,"119":{"singleended":[],"diff":[]}
	}
}
